<?xml version="1.0" encoding="UTF-8"?>
<svg width="66px" height="92px" viewBox="0 0 66 92" version="1.1" xmlns="http://www.w3.org/2000/svg" xmlns:xlink="http://www.w3.org/1999/xlink">
    <!-- Generator: Sketch 52.3 (67297) - http://www.bohemiancoding.com/sketch -->
    <title>logo / torch - one color</title>
    <desc>Created with Sketch.</desc>
    <defs>
        <path d="M24.1591032,3.68197343 C24.1591032,3.68197343 40.3897843,0.115673756 44.3004407,13.1659112 C48.2110971,26.2170317 57.9316698,25.3667354 57.9316698,25.3667354 C57.9316698,25.3667354 43.5499196,30.0031899 40.3482849,14.4267867 C37.3417856,5.00907133 24.1591032,3.68197343 24.1591032,3.68197343 Z M29.7323846,28.4147341 C0.94416117,23.2847016 0.002919414,0.011483768 0.019695768,5.21000008e-06 C0.035589156,-0.012356314 2.15117569,15.0740008 26.581079,18.1511373 C52.0263932,21.3563039 50.6118816,49.8045854 50.6118816,49.8045854 C50.6118816,49.8045854 43.409528,31.1227908 29.7323846,28.4147341 Z M56.6460713,12.3041364 C56.6460713,12.3041364 48.4062326,22.7328478 49.0658082,13.5729586 C49.7297986,4.41660114 56.6460713,12.3041364 56.6460713,12.3041364 Z" id="path-1"></path>
        <path d="M60.9470807,45.7614841 C60.9470807,45.7614841 67.9560648,48.8218442 65.172956,53.6905188 C62.3907301,58.5636081 47.2752351,56.1372176 47.2752351,56.1372176 C47.2752351,56.1372176 56.912809,55.6189165 61.1545777,52.7863616 C65.1941471,50.0906664 60.9470807,45.7614841 60.9470807,45.7614841 Z M38.7660918,63.9867853 C44.4965411,58.9529961 56.4695601,59.0103889 58.1984075,59.5666575 C60.1020822,60.175904 45.7371084,63.6344819 41.5112331,67.6899447 C37.2853578,71.7418757 26.4416524,91.9997646 26.4416524,91.9997646 C26.4416524,91.9997646 33.0391743,69.0214574 38.7660918,63.9867853 Z M26.8760716,50.6513498 C27.2115987,50.7961562 30.6419216,52.8781901 30.9368323,60.5290904 C31.2308599,68.1844057 21.3531193,89.3508666 21.3531193,89.3508666 C21.3531193,89.3508666 28.5439944,67.5045218 28.5722493,61.6283831 C28.6013872,55.7522444 26.582044,50.5224368 26.8760716,50.6513498 Z M29.8119336,43.5143356 L28.1616701,41.5444385 L25.619611,41.8393491 L26.9634853,39.5992644 L25.9348299,37.2232029 L28.4186132,37.8077264 L30.3222879,36.0462092 L30.5130086,38.6456611 L32.7195406,39.9312596 L30.3549577,40.9555002 L29.8119336,43.5143356 Z M17.3135499,37.1861183 L16.3308087,35.5808861 L14.4606867,35.5146637 L15.6756479,34.0427593 L15.1864848,32.2097219 L16.919747,32.9063821 L18.4914265,31.8406421 L18.3457371,33.7443168 L19.8061629,34.9133638 L17.985487,35.3945803 L17.3135499,37.1861183 Z M7.90819602,28.962173 L7.58503047,27.7472118 L6.39832416,27.3454622 L7.4570004,26.6355576 L7.48967014,25.3711503 L8.46799647,26.1508092 L9.67501099,25.7693679 L9.2229324,26.9587231 L9.93195409,27.9882615 L8.67549348,27.9458791 L7.90819602,28.962173 Z M5.05533288,21.2900814 L4.16353722,21.0375531 L3.46334518,21.6512145 L3.40860129,20.7055579 L2.62099561,20.2040332 L3.4836534,19.8685061 L3.69556524,18.9475726 L4.28008873,19.690147 L5.20102227,19.6186268 L4.70302944,20.4115302 L5.05533288,21.2900814 Z M38.7864,54.4745926 L38.060602,51.036323 L34.8430739,49.6809702 L37.8663494,47.9309316 L38.1391859,44.4264395 L40.7306911,46.7866076 L44.1274613,45.9733959 L42.7050031,49.1829773 L44.525679,52.1850617 L41.0547397,51.8080353 L38.7864,54.4745926 Z M1.12436824,9.22258508 L0.68818304,8.9365041 L0.207849536,9.14753297 L0.340294436,8.63011489 L0.000352526,8.22659943 L0.518653568,8.19392969 L0.788841164,7.73831923 L0.97514699,8.23101426 L1.48020354,8.3519806 L1.07845401,8.69192251 L1.12436824,9.22258508 Z M2.48413588,15.1119683 L1.82456028,14.8170577 L1.21531374,15.2029138 L1.28153619,14.4691691 L0.734980238,13.9923674 L1.43517228,13.8343165 L1.70447691,13.1500178 L2.07355669,13.7884023 L2.79140805,13.8431462 L2.31460641,14.3949999 L2.48413588,15.1119683 Z" id="path-3"></path>
    </defs>
    <g id="logo-/-torch---one-color" stroke="none" stroke-width="1" fill="none" fill-rule="evenodd">
        <g id="logo-/-runner---one-color" transform="translate(2.000000, 0.000000)">
            <mask id="mask-2" fill="white">
                <use xlink:href="#path-1"></use>
            </mask>
            <use id="Mask" fill="#0065A4" fill-rule="nonzero" xlink:href="#path-1"></use>
            <g id="fill-/-blue-darker" mask="url(#mask-2)" fill="#0065A4" fill-rule="evenodd">
                <rect id="🎨" x="0" y="0" width="58" height="50"></rect>
            </g>
        </g>
        <mask id="mask-4" fill="white">
            <use xlink:href="#path-3"></use>
        </mask>
        <use id="torch" fill="#0065A4" fill-rule="nonzero" xlink:href="#path-3"></use>
        <g id="fill-/-blue-darker" mask="url(#mask-4)" fill="#0065A4">
            <rect id="🎨" x="0" y="0" width="66" height="92"></rect>
        </g>
    </g>
</svg>